module final-project

go 1.15

require (
	github.com/DATA-DOG/go-sqlmock v1.5.0 // indirect
	github.com/davecgh/go-spew v1.1.1 // indirect
	github.com/go-sql-driver/mysql v1.6.0
	github.com/kr/text v0.2.0 // indirect
	github.com/labstack/echo v3.3.10+incompatible
	github.com/labstack/gommon v0.3.0 // indirect
	github.com/mattn/go-isatty v0.0.12 // indirect
	github.com/niemeyer/pretty v0.0.0-20200227124842-a10e7caefd8e // indirect
	github.com/stretchr/testify v1.7.0
	golang.org/x/crypto v0.0.0-20210921155107-089bfa567519 // indirect
	golang.org/x/net v0.0.0-20210928044308-7d9f5e0b762b // indirect
	golang.org/x/sys v0.0.0-20210927094055-39ccf1dd6fa6 // indirect
	golang.org/x/text v0.3.7 // indirect
	gopkg.in/check.v1 v1.0.0-20200227125254-8fa46927fb4f // indirect
	gopkg.in/yaml.v3 v3.0.0-20200615113413-eeeca48fe776 // indirect
)
